{
	"colors": {
		"foreground": "#BBBBBB",
		"activityBar.foreground": "#BBBBBB",
		"statusBar.foreground": "#BBBBBB",
		"menu.foreground": "#BBBBBB",
		"terminal.foreground": "#BBBBBB",

		"editorIndentGuide.background": "#373737",
		"editorIndentGuide.activeBackground": "#373737",

		"widget.shadow": "#00000080",

		"editor.foreground": "#A9B7C6",

		"statusBarItem.hoverBackground": "#4C5052",

		"notifications.background": "#4E5052",
		"notifications.border": "#54585A",

		"list.activeSelectionBackground": "#2F65CA",
		"list.activeSelectionForeground": "#BBBBBB",
		"list.inactiveSelectionBackground": "#0D293E",

		"activityBar.activeBackground": "#2C2E2F",
		"activityBar.activeBorder": "#2C2E2F",

		"editorGutter.background": "#313335",

		"terminal.ansiBlack": "#FFFFFF",
		"terminal.ansiBlue": "#5394EC",
		"terminal.ansiCyan": "#299999",
		"terminal.ansiGreen": "#A8C023",
		"terminal.ansiMagenta": "#AE8ABE",
		"terminal.ansiRed": "#FF6B68",
		"terminal.ansiWhite": "#999999",
		"terminal.ansiYellow": "#D6BF55",
		"terminal.ansiBrightBlack": "#555555",
		"terminal.ansiBrightBlue": "#7EAEF1",
		"terminal.ansiBrightCyan": "#6CDADA",
		"terminal.ansiBrightGreen": "#A8C023",
		"terminal.ansiBrightMagenta": "#FF99FF",
		"terminal.ansiBrightRed": "#FF8785",
		"terminal.ansiBrightWhite": "#1F1F1F",
		"terminal.ansiBrightYellow": "#FFFF00",

		"gitDecoration.ignoredResourceForeground": "#848504",
		"gitDecoration.addedResourceForeground": "#629755",
		"gitDecoration.untrackedResourceForeground": "#D1675A",
		"gitDecoration.modifiedResourceForeground": "#6897BB",
		"gitDecoration.deletedResourceForeground": "#6C6C6C",

		"editorError.foreground": "#BC3F3C",
		"editorWarning.foreground": "#F49810",
		"editorInfo.foreground": "#AEAE80",

		"editor.background": "#2B2B2B",
		"editorOverviewRuler.background": "#2B2B2B",
		"minimap.background": "#2B2B2B",
		"terminal.background": "#2B2B2B",

		"panel.background": "#3C3F41",
		"titleBar.activeBackground": "#3C3F41",
		"titleBar.inactiveBackground": "#3C3F41",
		"menu.background": "#3C3F41",
		"activityBar.background": "#3C3F41",
		"statusBar.background": "#3C3F41",
		"statusBar.debuggingBackground": "#3C3F41",
		"statusBar.noFolderBackground": "#3C3F41",
		"sideBarSectionHeader.background": "#3C3F41",
		"editorGroupHeader.tabsBackground": "#3C3F41",
		"editorGroupHeader.noTabsBackground": "#3C3F41",
		"breadcrumb.background": "#3C3F41",
		"sideBar.background": "#3C3F41",
		"tab.inactiveBackground": "#3C3F41",
		"tab.border": "#3C3F41",
		"terminal.border": "#3C3F41",

		"tab.activeBackground": "#4e5254",
		"tab.hoverBackground": "#333537",
		"tab.activeForeground": "#BBBBBB",
		"tab.inactiveForeground": "#BBBBBB",
		"tab.activeBorder": "#4A88C7",

		"editorGroupHeader.tabsBorder": "#323232",
		"panel.border": "#323232",
		"sideBar.border": "#323232",
		"activityBar.border": "#323232",
		"input.border": "#323232",
		"editorGroupHeader.border": "#323232",
		"sideBarSectionHeader.border": "#323232",

		"titleBar.border": "#515151",
		"menu.border": "#515151",
		"menu.separatorBackground": "#515151",
		"statusBar.border": "#515151",

		"editor.lineHighlightBackground": "#323232",
		"editor.foldBackground": "#3A3A3A",
		"editorLineNumber.foreground": "#606366",
		"editorLineNumber.activeForeground": "#A4A3A3",

		"editorSuggestWidget.border": "#565656",
		"editorHoverWidget.border": "#565656",
		"editorSuggestWidget.background": "#46484A",
		"editorHoverWidget.background": "#46484A",
		"editorSuggestWidget.foreground": "#BBBBBB",
		"editorHoverWidget.foreground": "#BBBBBB",
		"editorSuggestWidget.selectedBackground": "#113A5C",
		"editorSuggestWidget.highlightForeground": "#589DF6",

		"textLink.foreground": "#589DF6"
	},
	"tokenColors": [
		{
			"scope": [
				"comment"
			],
			"settings": {
				"foreground": "#808080"
			}
		},
		{
			"scope": [
				"comment.block.javadoc.java",
				"comment.line.number-sign.yaml"
			],
			"settings": {
				"foreground": "#629755",
				"fontStyle": "italic"
			}
		},
		{
			"scope": [
				"keyword.other.documentation.javadoc.java"
			],
			"settings": {
				"foreground": "#629755",
				"fontStyle": "italic bold underline"
			}
		},
		{
			"scope": [
				"string.other.link.title.markdown",
				"string.other.link.description.markdown",
				"punctuation.definition.string.begin.markdown",
				"punctuation.definition.string.end.markdown"
			],
			"settings": {
				"foreground": "#287BDE",
				"fontStyle": "underline"
			}
		},
		{
			"scope": [
				"markup.underline.link.markdown",
				"markup.underline.link.image.markdown"
			],
			"settings": {
				"foreground": "#FFC66D",
				"fontStyle": "italic"
			}
		},
		{
			"scope": [
				"markup.inline.raw.string.markdown",
				"markup.fenced_code.block.markdown",
				"string.other.link.description.title.markdown"
			],
			"settings": {
				"foreground": "#808080"
			}
		},
		{
			"scope": [
				"entity.other.attribute-name.localname.xml",
				"entity.other.attribute-name.xml",
				"variable.language.documentroot.xml"
			],
			"settings": {
				"foreground": "#BABABA"
			}
		},
		{
			"scope": [
				"entity.name.tag.localname.xml",
				"entity.name.tag.xml",
				"keyword.other.doctype.xml",
				"punctuation.definition.tag.xml"
			],
			"settings": {
				"foreground": "#E8BF6A"
			}
		},
		{
			"scope": [
				"constant.character.entity.xml"
			],
			"settings": {
				"foreground": "#6D9CBE"
			}
		},
		{
			"scope": [
				"entity.name.type.class.java",
				"entity.name.type.enum.java",
				"entity.other.inherited-class.java",
				"storage.type.java",
				"variable.other.object.java",
				"storage.type.generic.java",
				"storage.type.object.array.java",
				"variable.other.definition.java",
				"entity.name.function.java",

				"meta.embedded.block",

				"source.editorconfig punctuation.definition.brace",
				"source.editorconfig keyword.operator"
			],
			"settings": {
				"foreground": "#A9B7C6",
				"fontStyle": ""
			}
		},
		{
			"scope": [
				"support.type.property-name.json",

				"entity.name.tag.namespace.xml",
				"entity.other.attribute-name.namespace.xml",

				"source.editorconfig keyword.other.definition"
			],
			"settings": {
				"foreground": "#9876AA"
			}
		},
		{
			"scope": [
				"constant.other.enum.java",

				"markup.heading.markdown",
				"markup.heading.setext.1.markdown",
				"markup.heading.setext.2.markdown"
			],
			"settings": {
				"foreground": "#9876AA",
				"fontStyle": "italic"
			}
		},
		{
			"scope": [
				"punctuation.definition.annotation.java",
				"storage.type.annotation.java"
			],
			"settings": {
				"foreground": "#BBB529"
			}
		},
		{
			"scope": [
				"comment.block.javadoc.java variable.parameter.java"
			],
			"settings": {
				"foreground": "#8A653B"
			}
		},
		{
			"scope": [
				"punctuation.separator.dictionary.key-value.json",
				"punctuation.separator.dictionary.pair.json",
				"constant.language.json",

				"entity.name.tag.yaml",

				"punctuation.definition.bold.markdown",
				"punctuation.definition.italic.markdown",
				"punctuation.definition.constant.markdown",
				"punctuation.definition.constant.begin.markdown",
				"punctuation.definition.constant.end.markdown",
				"constant.other.reference.link.markdown",

				"storage.modifier.java",
				"storage.modifier.extends.java",
				"storage.modifier.super.java",
				"storage.modifier.implements.java",
				"storage.type.primitive.java",
				"storage.type.primitive.array.java",
				"constant.language.java",
				"keyword.other.import.java",
				"keyword.other.package.java",
				"keyword.control.java",
				"keyword.control.new.java",
				"keyword.control.try.java",
				"keyword.control.catch.java",
				"keyword.control.finally.java",
				"keyword.control.throw.java",
				"keyword.operator.instanceof.java",
				"variable.language.java",
				"variable.language.this.java",
				"variable.other.object.property.java",

				"punctuation.separator.delimiter.java",
				"punctuation.terminator.java",

				"constant.character.escape",

				"entity.name.section.group-title.editorconfig"
			],
			"settings": {
				"foreground": "#CC7832"
			}
		},
		{
			"scope": [
				"constant.numeric"
			],
			"settings": {
				"foreground": "#6897BB"
			}
		},
		{
			"scope": [
				"string.quoted.double",
				"string.quoted.single",
				"markup.quote.markdown",

				"source.editorconfig constant.language",
				"source.editorconfig constant.numeric"
			],
			"settings": {
				"foreground": "#6A8759"
			}
		}
	],
	"semanticHighlighting": true,
	"semanticTokenColors": {
		"*:java": {
			"foreground": "#A9B7C6",
			"fontStyle": ""
		},
		"keyword:java": "#CC7832",
		"keyword.documentation:java": {
			"foreground": "#629755",
			"fontStyle": "italic bold underline"
		},
		"modifier:java": "#CC7832",
		"annotation:java": "#BBB529",
		"typeParameter:java": "#507874",
		"*.constructor.declaration:java": "#FFC66D",
		"function.static:java": { "fontStyle": "italic" },
		"function.declaration:java": {
			"foreground": "#FFC66D",
			"fontStyle": ""
		},
		"method.static:java": { "fontStyle": "italic" },
		"method.declaration:java": {
			"foreground": "#FFC66D",
			"fontStyle": ""
		},
		"property:java": "#9876AA",
		"property.static:java": { "fontStyle": "italic"	},
		"enumMember:java": {
			"foreground": "#9876AA",
			"fontStyle": "italic"
		},
		"*.documentation": {
			"fontStyle": "italic"
		},
		"parameter.documentation": "#8A653B"
	}
}
